[
  {
    "id_compra": "46c46451-62be-48a0-a98a-5b87b16f635b",
    "material": {
      "c-1": "engrampadora",
      "c-2": "colores"
    },
    "precio_unitario": {
      "c-1": 23,
      "c-2": 15
    },
    "moneda": "Bs",
    "precio_total": 38
  },
  {
    "id_compra": "e98c313e-b52b-40b0-a8a3-2f8db3d2f163",
    "material": {
      "c-1": "archivador",
      "c-2": "marcadores"
    },
    "precio_unitario": {
      "c-1": 14,
      "c-2": 20
    },
    "moneda": "Bs",
    "precio_total": 34
  },
  {
    "id_compra": "7b2134b6-7c33-4132-9f94-2336fddef2b0",
    "material": {
      "c-1": "borrador",
      "c-2": "lapicero faber castell"
    },
    "precio_unitario": {
      "c-1": 2,
      "c-2": 5
    },
    "moneda": "Bs",
    "precio_total": 7
  },
  {
    "id_compra": "d99ef246-e419-4b2f-91a3-99ca25e61ebc",
    "material": {
      "c-1": "libro",
      "c-2": "estuche"
    },
    "precio_unitario": {
      "c-1": 25,
      "c-2": 19
    },
    "moneda": "Bs",
    "precio_total": 44
  },
  {
    "id_compra": "985ca47d-1de4-4463-bafa-06990961cb6c",
    "material": {
      "c-1": "Papel Esponja",
      "c-2": "Estuche Geometrico"
    },
    "precio_unitario": {
      "c-1": 12,
      "c-2": 20
    },
    "moneda": "Bs",
    "precio_total": 32
  },
  {
    "id_compra": "dd2a3457-7358-413e-a35b-0d1e8a783f7e",
    "material": {
      "c-1": "mochila",
      "c-2": "regla metalica"
    },
    "precio_unitario": {
      "c-1": 100,
      "c-2": 10
    },
    "moneda": "Bs",
    "precio_total": 110
  }
]